; Engine configuration file.
; It's best edited using the editor UI and not directly,
; since the parameters that go here are not all obvious.
;
; Format:
;   [section] ; section goes between []
;   param=value ; assign values to parameters

config_version=5

_global_script_classes=[{
"base": "Note",
"class": &"BeepCube",
"language": &"GDScript",
"path": "res://game/BeepCube_orig.gd"
}, {
"base": "Node3D",
"class": &"BeepCubeSliceParticles",
"language": &"GDScript",
"path": "res://game/BeepCube_SliceParticles.gd"
}, {
"base": "MovementProvider",
"class": &"Function_ClimbMovement",
"language": &"GDScript",
"path": "res://addons/godot-xr-tools/functions/Function_Climb_movement.gd"
}, {
"base": "MovementProvider",
"class": &"Function_DirectMovement",
"language": &"GDScript",
"path": "res://addons/godot-xr-tools/functions/Function_Direct_movement.gd"
}, {
"base": "MovementProvider",
"class": &"Function_FlightMovement",
"language": &"GDScript",
"path": "res://addons/godot-xr-tools/functions/Function_Flight_movement.gd"
}, {
"base": "MovementProvider",
"class": &"Function_Glide",
"language": &"GDScript",
"path": "res://addons/godot-xr-tools/functions/Function_Glide_movement.gd"
}, {
"base": "MovementProvider",
"class": &"Function_Jump",
"language": &"GDScript",
"path": "res://addons/godot-xr-tools/functions/Function_Jump_movement.gd"
}, {
"base": "MovementProvider",
"class": &"Function_JumpDetect",
"language": &"GDScript",
"path": "res://addons/godot-xr-tools/functions/Function_JumpDetect_movement.gd"
}, {
"base": "Area3D",
"class": &"Function_Pickup",
"language": &"GDScript",
"path": "res://addons/godot-xr-tools/functions/Function_Pickup.gd"
}, {
"base": "MovementProvider",
"class": &"Function_WindMovement",
"language": &"GDScript",
"path": "res://addons/godot-xr-tools/functions/Function_Wind_movement.gd"
}, {
"base": "Node",
"class": &"GroundPhysics",
"language": &"GDScript",
"path": "res://addons/godot-xr-tools/overrides/GroundPhysics.gd"
}, {
"base": "Resource",
"class": &"GroundPhysicsSettings",
"language": &"GDScript",
"path": "res://addons/godot-xr-tools/overrides/GroundPhysicsSettings.gd"
}, {
"base": "Node",
"class": &"MovementProvider",
"language": &"GDScript",
"path": "res://addons/godot-xr-tools/functions/MovementProvider.gd"
}, {
"base": "Node3D",
"class": &"Object_climbable",
"language": &"GDScript",
"path": "res://addons/godot-xr-tools/objects/Object_climbable.gd"
}, {
"base": "Node",
"class": &"PlayerBody",
"language": &"GDScript",
"path": "res://addons/godot-xr-tools/assets/PlayerBody.gd"
}, {
"base": "RefCounted",
"class": &"VelocityAverager",
"language": &"GDScript",
"path": "res://addons/godot-xr-tools/misc/Velocity_Averager.gd"
}, {
"base": "RefCounted",
"class": &"VelocityAveragerLinear",
"language": &"GDScript",
"path": "res://addons/godot-xr-tools/misc/Velocity_Averager_Linear.gd"
}, {
"base": "Area3D",
"class": &"WindArea",
"language": &"GDScript",
"path": "res://addons/godot-xr-tools/objects/Wind_area.gd"
}, {
"base": "RefCounted",
"class": &"XRHelpers",
"language": &"GDScript",
"path": "res://addons/godot-xr-tools/misc/XR_Helpers.gd"
}, {
"base": "Area3D",
"class": &"XRToolsInteractableArea",
"language": &"GDScript",
"path": "res://addons/godot-xr-tools/objects/Interactable_area.gd"
}, {
"base": "Node3D",
"class": &"XRToolsInteractableBody",
"language": &"GDScript",
"path": "res://addons/godot-xr-tools/objects/Interactable_body.gd"
}, {
"base": "RigidBody3D",
"class": &"XRToolsPickable",
"language": &"GDScript",
"path": "res://addons/godot-xr-tools/objects/Object_pickable.gd"
}]
_global_script_class_icons={
"BeepCube": "",
"BeepCubeSliceParticles": "",
"Function_ClimbMovement": "",
"Function_DirectMovement": "",
"Function_FlightMovement": "",
"Function_Glide": "",
"Function_Jump": "",
"Function_JumpDetect": "",
"Function_Pickup": "",
"Function_WindMovement": "",
"GroundPhysics": "",
"GroundPhysicsSettings": "",
"MovementProvider": "",
"Object_climbable": "",
"PlayerBody": "",
"VelocityAverager": "",
"VelocityAveragerLinear": "",
"WindArea": "",
"XRHelpers": "",
"XRToolsInteractableArea": "",
"XRToolsInteractableBody": "",
"XRToolsPickable": ""
}

[application]

config/name="OpenXRCore4"
run/main_scene="res://Main.tscn"
config/features=PackedStringArray("4.0")
config/icon="res://icon.png"

[display]

window/vsync/vsync_mode=0

[editor_plugins]

enabled=PackedStringArray("res://addons/godot-xr-tools/plugin.cfg")

[filesystem]

import/blender/enabled=false

[rendering]

renderer/rendering_method="mobile"
anti_aliasing/quality/msaa_3d=1

[xr]

openxr/enabled=true
shaders/enabled=true
